<?xml version="1.0" encoding="UTF-8" standalone="no"?>
<!-- Created with Inkscape (http://www.inkscape.org/) -->

<svg
   width="64mm"
   height="64mm"
   viewBox="0 0 64 64"
   version="1.1"
   id="svg5"
   inkscape:version="1.1 (ce6663b3b7, 2021-05-25)"
   sodipodi:docname="exclamation-circle.svg"
   xmlns:inkscape="http://www.inkscape.org/namespaces/inkscape"
   xmlns:sodipodi="http://sodipodi.sourceforge.net/DTD/sodipodi-0.dtd"
   xmlns="http://www.w3.org/2000/svg"
   xmlns:svg="http://www.w3.org/2000/svg">
  <sodipodi:namedview
     id="namedview7"
     pagecolor="#505050"
     bordercolor="#eeeeee"
     borderopacity="1"
     inkscape:pageshadow="0"
     inkscape:pageopacity="0"
     inkscape:pagecheckerboard="0"
     inkscape:document-units="mm"
     showgrid="false"
     inkscape:zoom="0.64230499"
     inkscape:cx="797.1291"
     inkscape:cy="378.32494"
     inkscape:window-width="1853"
     inkscape:window-height="1017"
     inkscape:window-x="67"
     inkscape:window-y="27"
     inkscape:window-maximized="1"
     inkscape:current-layer="layer1" />
  <defs
     id="defs2" />
  <g
     inkscape:label="Layer 1"
     inkscape:groupmode="layer"
     id="layer1">
    <circle
       style="fill:#CF6679;fill-opacity:1;stroke:none;stroke-width:3.61184"
       id="path846"
       cx="32"
       cy="32"
       r="32" />
    <g
       aria-label="!"
       transform="matrix(7.6261072,0,0,5.1845237,-516.54196,-559.82302)"
       id="text4480"
       style="font-size:10.5833px;line-height:1.25;white-space:pre;fill:#E0E0E0;stroke-width:0.264583">
      <path
         d="m 71.404971,116.69691 h 1.049028 v 1.31258 h -1.049028 z m 0,-6.40269 h 1.049028 v 3.3848 l -0.103352,1.84484 h -0.837156 l -0.10852,-1.84484 z"
         id="path824" />
    </g>
  </g>
</svg>
